category	numDEInCat	numInCat	percent	over.fdr	under.fdr	term
GO:0006351	416	1808	23	3.53711318312461e-06	1	transcription, DNA-templated
GO:0008380	44	102	43.1	3.53711318312461e-06	1	RNA splicing
GO:0006397	61	165	37	3.65832949534237e-06	1	mRNA processing
GO:0009651	100	343	29.2	0.000101468351817437	1	response to salt stress
GO:0016032	20	35	57.1	0.000128403374566513	1	viral process
GO:0006281	59	175	33.7	0.000128403374566513	1	DNA repair
GO:0009737	109	388	28.1	0.000128403374566513	1	response to abscisic acid
GO:0006886	52	154	33.8	0.00051431958102422	1	intracellular protein transport
GO:0006355	469	2183	21.5	0.000568102686052976	1	regulation of transcription, DNA-templated
GO:0007623	36	94	38.3	0.000660621217165082	1	circadian rhythm
GO:0031640	8	262	3.1	1	1.14305784055488e-10	killing of cells of other organism
GO:0006412	76	1119	6.8	1	1.20883897635679e-24	translation
GO:0006414	30	762	3.9	1	1.35351223778096e-28	translational elongation
GO:0008150	1066	7733	13.8	1	6.51372634100744e-26	biological_process
GO:0042545	0	73	0	1	0.000431325825233417	cell wall modification
